Consolidated
…
Words by chapter:

#library(tidyverse)

by_chap <- abby_text %>%
  group_by(chapter) %>%
  summarise(num_he = sum(str_detect(text, pattern = fixed(" he ", ignore_case = TRUE))))

by_chap

## # A tibble: 32 x 2
##    chapter num_he
##      <int>  <int>
##  1       0      1
##  2       1      2
##  3       2      1
##  4       3      7
##  5       4      2
##  6       5      5
##  7       6      2
##  8       7     24
##  9       8     31
## 10       9     24
## # ... with 22 more rows

murder_chap <- abby_text %>%
  group_by(chapter) %>%
  summarise(num_he = sum(str_detect(text, pattern = fixed(" murder ", ignore_case = TRUE))))

murder_chap

## # A tibble: 32 x 2
##    chapter num_he
##      <int>  <int>
##  1       0      0
##  2       1      0
##  3       2      0
##  4       3      0
##  5       4      0
##  6       5      0
##  7       6      0
##  8       7      0
##  9       8      0
## 10       9      0
## # ... with 22 more rows

dark_chap <- abby_text %>%
  group_by(chapter) %>%
  summarise(num_he = sum(str_detect(text, pattern = fixed(" dark ", ignore_case = TRUE))))

dark_chap

## # A tibble: 32 x 2
##    chapter num_he
##      <int>  <int>
##  1       0      0
##  2       1      1
##  3       2      0
##  4       3      0
##  5       4      0
##  6       5      0
##  7       6      2
##  8       7      0
##  9       8      0
## 10       9      0
## # ... with 22 more rows
…
